MIPS_V2/dump.vcd
$date
	Fri Jul  7 13:46:53 2023
$end
$version
	Icarus Verilog
$end
$timescale
	1s
$end
$scope module tb $end
$var reg 32 ! I0 [31:0] $end
$var reg 1 " clk $end
$var reg 1 # start $end
$scope module test $end
$var wire 3 $ AluCtrl [2:0] $end
$var wire 2 % AluOp [1:0] $end
$var wire 1 & AluSrc $end
$var wire 1 ' Branch $end
$var wire 32 ( DI [31:0] $end
$var wire 1 ) Jump $end
$var wire 1 * MemRead $end
$var wire 1 + MemToReg $end
$var wire 1 , MemWrite $end
$var wire 1 - RegDst $end
$var wire 1 . RegWrite $end
$var wire 1 / Zero $end
$var wire 1 0 clk $end
$var wire 32 1 outAdder4 [31:0] $end
$var wire 32 2 outAdderBranch [31:0] $end
$var wire 32 3 outAlu [31:0] $end
$var wire 32 4 outDM [31:0] $end
$var wire 32 5 outIM [31:0] $end
$var wire 32 6 outMux1 [31:0] $end
$var wire 32 7 outMux2 [31:0] $end
$var wire 32 8 outMuxAlu [31:0] $end
$var wire 32 9 outMuxDM [31:0] $end
$var wire 32 : outMuxIntrare [31:0] $end
$var wire 32 ; outMuxWR [31:0] $end
$var wire 32 < outReadData1 [31:0] $end
$var wire 32 = outReadData2 [31:0] $end
$var wire 32 > outReg [31:0] $end
$var wire 1 ? start $end
$scope module muxIntrare $end
$var wire 32 @ I0 [31:0] $end
$var wire 32 A I1 [31:0] $end
$var wire 32 B out [31:0] $end
$var wire 1 ? sel $end
$upscope $end
$scope module re $end
$var wire 1 0 clk $end
$var wire 32 C di [31:0] $end
$var wire 1 D pl $end
$var reg 32 E out [31:0] $end
$upscope $end
$scope module adder4 $end
$var wire 32 F I0 [31:0] $end
$var wire 32 G I1 [31:0] $end
$var wire 32 H out [31:0] $end
$upscope $end
$scope module adderBranch $end
$var wire 32 I I0 [31:0] $end
$var wire 32 J I1 [31:0] $end
$var wire 32 K out [31:0] $end
$upscope $end
$scope module muxPC1 $end
$var wire 32 L I0 [31:0] $end
$var wire 32 M I1 [31:0] $end
$var wire 32 N out [31:0] $end
$var wire 1 O sel $end
$upscope $end
$scope module muxPC2 $end
$var wire 32 P I0 [31:0] $end
$var wire 32 Q I1 [31:0] $end
$var wire 32 R out [31:0] $end
$var wire 1 ) sel $end
$upscope $end
$scope module im $end
$var wire 32 S instr [31:0] $end
$var wire 32 T pc [31:0] $end
$upscope $end
$scope module ctrl $end
$var wire 6 U instr [5:0] $end
$var reg 2 V AluOp [1:0] $end
$var reg 1 W AluSrc $end
$var reg 1 X Branch $end
$var reg 1 Y Jump $end
$var reg 1 Z MemRead $end
$var reg 1 [ MemToReg $end
$var reg 1 \ MemWrite $end
$var reg 1 ] RegDst $end
$var reg 1 ^ RegWrite $end
$upscope $end
$scope module aluControl $end
$var wire 2 _ AluOp [1:0] $end
$var wire 6 ` Func [5:0] $end
$var reg 3 a AluCtrl [2:0] $end
$upscope $end
$scope module muxWR $end
$var wire 32 b I0 [31:0] $end
$var wire 32 c I1 [31:0] $end
$var wire 32 d out [31:0] $end
$var wire 1 - sel $end
$upscope $end
$scope module registers $end
$var wire 5 e ReadRegister1 [4:0] $end
$var wire 5 f ReadRegister2 [4:0] $end
$var wire 1 . RegWrite $end
$var wire 32 g WriteData [31:0] $end
$var wire 5 h WriteRegister [4:0] $end
$var wire 1 0 clk $end
$var reg 32 i ReadData1 [31:0] $end
$var reg 32 j ReadData2 [31:0] $end
$var integer 32 k i [31:0] $end
$var integer 32 l t0 [31:0] $end
$var integer 32 m t1 [31:0] $end
$var integer 32 n t2 [31:0] $end
$var integer 32 o t3 [31:0] $end
$upscope $end
$scope module muxAlu $end
$var wire 32 p I0 [31:0] $end
$var wire 32 q I1 [31:0] $end
$var wire 32 r out [31:0] $end
$var wire 1 & sel $end
$upscope $end
$scope module alu $end
$var wire 3 s AluCtrl [2:0] $end
$var wire 32 t In0 [31:0] $end
$var wire 32 u In1 [31:0] $end
$var reg 32 v AluResult [31:0] $end
$var reg 1 w Zero $end
$upscope $end
$scope module dm $end
$var wire 32 x Addr [31:0] $end
$var wire 1 * MemRead $end
$var wire 1 , MemWrite $end
$var wire 32 y WriteData [31:0] $end
$var wire 1 0 clk $end
$var reg 32 z ReadData [31:0] $end
$var integer 32 { i [31:0] $end
$var integer 32 | l0 [31:0] $end
$var integer 32 } l1 [31:0] $end
$var integer 32 ~ l2 [31:0] $end
$var integer 32 !" l3 [31:0] $end
$var integer 32 "" l4 [31:0] $end
$var integer 32 #" l5 [31:0] $end
$var integer 32 $" l6 [31:0] $end
$var integer 32 %" l7 [31:0] $end
$var integer 32 &" l8 [31:0] $end
$var integer 32 '" l9 [31:0] $end
$upscope $end
$scope module muxDM $end
$var wire 32 (" I0 [31:0] $end
$var wire 32 )" I1 [31:0] $end
$var wire 32 *" out [31:0] $end
$var wire 1 + sel $end
$upscope $end
$upscope $end
$upscope $end
$enddefinitions $end
#0
$dumpvars
bx *"
bx )"
bx ("
b0 '"
b0 &"
b0 %"
b0 $"
b0 #"
b0 ""
b0 !"
b0 ~
b0 }
b0 |
b10000 {
bx z
bx y
bx x
xw
bx v
bx u
bx t
b10 s
bx r
bx q
bx p
b0 o
b0 n
b0 m
b0 l
b100000 k
bx j
bx i
bx h
bx g
bx f
bx e
b0xxxxx d
b0xxxxx c
b0xxxxx b
b10 a
bx `
bx _
x^
x]
x\
x[
xZ
xY
xX
xW
bx V
bx U
bx T
bx S
bx R
bx00 Q
bx P
xO
bx N
bx M
bx L
bx K
bx00 J
bx I
bx H
b100 G
bx F
bx E
1D
b0 C
b0 B
b0 A
bx @
1?
bx >
bx =
bx <
b0xxxxx ;
b0 :
bx 9
bx 8
bx 7
bx 6
bx 5
bx 4
bx 3
bx 2
bx 1
00
x/
x.
x-
x,
x+
x*
x)
b0 (
x'
x&
bx %
b10 $
1#
0"
b11001 !
$end
#10
b10000 9
b10000 g
b10000 *"
b100 7
b100 @
b100 R
0w
0/
b10000 v
b10000 3
b10000 x
b10000 ("
b1000 h
0O
b100 6
b100 N
b100 P
b10000 8
b10000 r
b10000 u
b0 j
b0 =
b0 p
b0 y
b0 i
b0 <
b0 t
b1000 ;
b1000 d
1^
1.
0]
0-
1W
1&
0X
0'
0\
0,
0[
0+
b0 V
b0 %
b0 _
0Y
0)
0Z
0*
b1000000 J
b1000100 2
b1000100 K
b1000100 M
b1000000000000001000000 Q
b10000 q
b1000 f
b0 e
b0 c
b1000 b
b10000 `
b1000 U
b100000000010000000000000010000 5
b100000000010000000000000010000 S
b0 E
b100 1
b100 H
b100 I
b100 L
b0 >
b0 F
b0 T
1"
10
#20
b10000 l
b10000 j
b10000 =
b10000 p
b10000 y
b100 :
b100 B
b100 C
0"
00
0#
0?
#30
b0 9
b0 g
b0 *"
1w
1/
b0 v
b0 3
b0 x
b0 ("
b1000 :
b1000 B
b1000 C
b0 8
b0 r
b0 u
0^
0.
1\
1,
b1000000000000000000000 Q
b0 J
b1000 7
b1000 @
b1000 R
b0 q
b0 `
b101011 U
b1000 6
b1000 N
b1000 P
b10101100000010000000000000000000 5
b10101100000010000000000000000000 S
b100 E
b1000 2
b1000 K
b1000 M
b1000 1
b1000 H
b1000 I
b1000 L
b100 >
b100 F
b100 T
1"
10
#40
b10000 |
0"
00
#50
b100000 9
b100000 g
b100000 *"
0w
0/
b100000 v
b100000 3
b100000 x
b100000 ("
b1100 :
b1100 B
b1100 C
b10000 8
b10000 r
b10000 u
b10000 i
b10000 <
b10000 t
1^
1.
0\
0,
b100001000000000000001000000 Q
b1000000 J
b1100 7
b1100 @
b1100 R
b10000 q
b1000 e
b10000 `
b1000 U
b1100 6
b1100 N
b1100 P
b100001000010000000000000010000 5
b100001000010000000000000010000 S
b1000 E
b1001100 2
b1001100 K
b1001100 M
b1100 1
b1100 H
b1100 I
b1100 L
b1000 >
b1000 F
b1000 T
1"
10
#60
b110000 9
b110000 g
b110000 *"
b110000 v
b110000 3
b110000 x
b110000 ("
b100000 l
b100000 j
b100000 =
b100000 p
b100000 y
b100000 i
b100000 <
b100000 t
0"
00
#70
b1 9
b1 g
b1 *"
b1 v
b1 3
b1 x
b1 ("
b10000 :
b10000 B
b10000 C
b1 8
b1 r
b1 u
b0 i
b0 <
b0 t
0^
0.
1\
1,
b1000000000000000000100 Q
b100 J
b10000 7
b10000 @
b10000 R
b1 q
b0 e
b1 `
b101011 U
b10000 6
b10000 N
b10000 P
b10101100000010000000000000000001 5
b10101100000010000000000000000001 S
b1100 E
b10100 2
b10100 K
b10100 M
b10000 1
b10000 H
b10000 I
b10000 L
b1100 >
b1100 F
b1100 T
1"
10
#80
b100000 }
0"
00
#90
b110000 9
b110000 g
b110000 *"
b110000 v
b110000 3
b110000 x
b110000 ("
b10100 :
b10100 B
b10100 C
b10000 8
b10000 r
b10000 u
b100000 i
b100000 <
b100000 t
1^
1.
0\
0,
b100001000000000000001000000 Q
b1000000 J
b10100 7
b10100 @
b10100 R
b10000 q
b1000 e
b10000 `
b1000 U
b10100 6
b10100 N
b10100 P
b100001000010000000000000010000 5
b100001000010000000000000010000 S
b10000 E
b1010100 2
b1010100 K
b1010100 M
b10100 1
b10100 H
b10100 I
b10100 L
b10000 >
b10000 F
b10000 T
1"
10
#100
b1000000 9
b1000000 g
b1000000 *"
b1000000 v
b1000000 3
b1000000 x
b1000000 ("
b110000 l
b110000 j
b110000 =
b110000 p
b110000 y
b110000 i
b110000 <
b110000 t
0"
00
#110
b10 9
b10 g
b10 *"
b10 v
b10 3
b10 x
b10 ("
b11000 :
b11000 B
b11000 C
b10 8
b10 r
b10 u
b0 i
b0 <
b0 t
0^
0.
1\
1,
b1000000000000000001000 Q
b1000 J
b11000 7
b11000 @
b11000 R
b10 q
b0 e
b10 `
b101011 U
b11000 6
b11000 N
b11000 P
b10101100000010000000000000000010 5
b10101100000010000000000000000010 S
b10100 E
b100000 2
b100000 K
b100000 M
b11000 1
b11000 H
b11000 I
b11000 L
b10100 >
b10100 F
b10100 T
1"
10
#120
b110000 ~
0"
00
#130
b1000000 9
b1000000 g
b1000000 *"
b1000000 v
b1000000 3
b1000000 x
b1000000 ("
b11100 :
b11100 B
b11100 C
b10000 8
b10000 r
b10000 u
b110000 i
b110000 <
b110000 t
1^
1.
0\
0,
b100001000000000000001000000 Q
b1000000 J
b11100 7
b11100 @
b11100 R
b10000 q
b1000 e
b10000 `
b1000 U
b11100 6
b11100 N
b11100 P
b100001000010000000000000010000 5
b100001000010000000000000010000 S
b11000 E
b1011100 2
b1011100 K
b1011100 M
b11100 1
b11100 H
b11100 I
b11100 L
b11000 >
b11000 F
b11000 T
1"
10
#140
b1010000 9
b1010000 g
b1010000 *"
b1010000 v
b1010000 3
b1010000 x
b1010000 ("
b1000000 l
b1000000 j
b1000000 =
b1000000 p
b1000000 y
b1000000 i
b1000000 <
b1000000 t
0"
00
#150
b11 9
b11 g
b11 *"
b11 v
b11 3
b11 x
b11 ("
b100000 :
b100000 B
b100000 C
b11 8
b11 r
b11 u
b0 i
b0 <
b0 t
0^
0.
1\
1,
b1000000000000000001100 Q
b1100 J
b100000 7
b100000 @
b100000 R
b11 q
b0 e
b11 `
b101011 U
b100000 6
b100000 N
b100000 P
b10101100000010000000000000000011 5
b10101100000010000000000000000011 S
b11100 E
b101100 2
b101100 K
b101100 M
b100000 1
b100000 H
b100000 I
b100000 L
b11100 >
b11100 F
b11100 T
1"
10
#160
b1000000 !"
0"
00
#170
b0 9
b0 g
b0 *"
1w
1/
b0 v
b0 3
b0 x
b0 ("
b100100 :
b100100 B
b100100 C
b1000000 8
b1000000 r
b1000000 u
b1000000 i
b1000000 <
b1000000 t
b11 a
b11 $
b11 s
1^
1.
1]
1-
0W
0&
0\
0,
b10 V
b10 %
b10 _
b100001000010000000010011000 Q
b10000000010011000 J
b100100 7
b100100 @
b100100 R
b100000000100110 q
b1000 e
b1000 c
b100110 `
b0 U
b100100 6
b100100 N
b100100 P
b1000010000100000000100110 5
b1000010000100000000100110 S
b100000 E
b10000000010111100 2
b10000000010111100 K
b10000000010111100 M
b100100 1
b100100 H
b100100 I
b100100 L
b100000 >
b100000 F
b100000 T
1"
10
#180
b0 9
b0 g
b0 *"
b0 8
b0 r
b0 u
1w
1/
b0 v
b0 3
b0 x
b0 ("
b0 l
b0 j
b0 =
b0 p
b0 y
b0 i
b0 <
b0 t
0"
00
#190
b1001 h
b101000 :
b101000 B
b101000 C
b1001 ;
b1001 d
b100101001010010000010011000 Q
b10010000010011000 J
b101000 7
b101000 @
b101000 R
b100100000100110 q
b1001 f
b1001 e
b1001 c
b1001 b
b101000 6
b101000 N
b101000 P
b1001010010100100000100110 5
b1001010010100100000100110 S
b100100 E
b10010000011000000 2
b10010000011000000 K
b10010000011000000 M
b101000 1
b101000 H
b101000 I
b101000 L
b100100 >
b100100 F
b100100 T
1"
10
#200
0"
00
#210
b11 9
b11 g
b11 *"
b1010 h
0w
0/
b11 v
b11 3
b11 x
b11 ("
b11 8
b11 r
b11 u
b101100 :
b101100 B
b101100 C
b1010 ;
b1010 d
b10 a
b10 $
b10 s
0]
0-
1W
1&
b0 V
b0 %
b0 _
b1010000000000000001100 Q
b1100 J
b101100 7
b101100 @
b101100 R
b11 q
b1010 f
b0 e
b0 c
b1010 b
b11 `
b1000 U
b101100 6
b101100 N
b101100 P
b100000000010100000000000000011 5
b100000000010100000000000000011 S
b101000 E
b111000 2
b111000 K
b111000 M
b101100 1
b101100 H
b101100 I
b101100 L
b101000 >
b101000 F
b101000 T
1"
10
#220
b11 n
b11 j
b11 =
b11 p
b11 y
0"
00
#230
1w
1/
b0 v
b0 3
b0 x
b0 ("
b1011 h
b10000 9
b10000 g
b10000 *"
b10000 z
b10000 4
b10000 )"
b110000 :
b110000 B
b110000 C
b0 8
b0 r
b0 u
b0 j
b0 =
b0 p
b0 y
b1011 ;
b1011 d
1[
1+
1Z
1*
b100001011000000000000000000 Q
b0 J
b110000 7
b110000 @
b110000 R
b0 q
b1011 f
b1000 e
b1011 b
b0 `
b100011 U
b110000 6
b110000 N
b110000 P
b10001101000010110000000000000000 5
b10001101000010110000000000000000 S
b101100 E
b110000 2
b110000 K
b110000 M
b110000 1
b110000 H
b110000 I
b110000 L
b101100 >
b101100 F
b101100 T
1"
10
#240
b10000 o
b10000 j
b10000 =
b10000 p
b10000 y
0"
00
#250
b1001 h
0w
0/
b10000 v
b10000 3
b10000 x
b10000 ("
b1001 ;
b1001 d
b10000 9
b10000 g
b10000 *"
b110100 :
b110100 B
b110100 C
b10000 8
b10000 r
b10000 u
1]
1-
0W
0&
0[
0+
b10 V
b10 %
b10 _
0Z
0*
b100101011010010000010000000 Q
b10010000010000000 J
b110100 7
b110100 @
b110100 R
b100100000100000 q
b1001 e
b1001 c
b100000 `
b0 U
b110100 6
b110100 N
b110100 P
b1001010110100100000100000 5
b1001010110100100000100000 S
b110000 E
b10010000010110100 2
b10010000010110100 K
b10010000010110100 M
b110100 1
b110100 H
b110100 I
b110100 L
b110000 >
b110000 F
b110000 T
1"
10
#260
b100000 9
b100000 g
b100000 *"
b100000 v
b100000 3
b100000 x
b100000 ("
b10000 m
b10000 i
b10000 <
b10000 t
0"
00
#270
b11111111111111111111111111111101 9
b11111111111111111111111111111101 g
b11111111111111111111111111111101 *"
b11 8
b11 r
b11 u
b1010 h
b11111111111111111111111111111101 v
b11111111111111111111111111111101 3
b11111111111111111111111111111101 x
b11111111111111111111111111111101 ("
b111000 :
b111000 B
b111000 C
b11 j
b11 =
b11 p
b11 y
b0 i
b0 <
b0 t
b1010 ;
b1010 d
b110 a
b110 $
b110 s
0^
0.
0]
0-
1X
1'
b1 V
b1 %
b1 _
b100001010000000000000001000 Q
b1000 J
b111000 7
b111000 @
b111000 R
b10 q
b1010 f
b1000 e
b0 c
b1010 b
b10 `
b100 U
b111000 6
b111000 N
b111000 P
b10001000010100000000000000010 5
b10001000010100000000000000010 S
b110100 E
b1000000 2
b1000000 K
b1000000 M
b111000 1
b111000 H
b111000 I
b111000 L
b110100 >
b110100 F
b110100 T
1"
10
#280
0"
00
#290
b1 9
b1 g
b1 *"
b1000 h
b1 v
b1 3
b1 x
b1 ("
b1 8
b1 r
b1 u
b111100 :
b111100 B
b111100 C
b0 j
b0 =
b0 p
b0 y
b1000 ;
b1000 d
b10 a
b10 $
b10 s
1^
1.
1W
1&
0X
0'
b0 V
b0 %
b0 _
b100001000000000000000000100 Q
b100 J
b111100 7
b111100 @
b111100 R
b1 q
b1000 f
b1000 b
b1 `
b1000 U
b111100 6
b111100 N
b111100 P
b100001000010000000000000000001 5
b100001000010000000000000000001 S
b111000 E
b1000000 2
b1000000 K
b1000000 M
b111100 1
b111100 H
b111100 I
b111100 L
b111000 >
b111000 F
b111000 T
1"
10
#300
b10 9
b10 g
b10 *"
b10 v
b10 3
b10 x
b10 ("
b1 l
b1 j
b1 =
b1 p
b1 y
b1 i
b1 <
b1 t
0"
00
#310
b0 9
b0 g
b0 *"
1w
1/
b0 v
b0 3
b0 x
b0 ("
b0 h
b101100 :
b101100 B
b101100 C
b0 8
b0 r
b0 u
b0 j
b0 =
b0 p
b0 y
b0 i
b0 <
b0 t
b0 ;
b0 d
0^
0.
0W
0&
1Y
1)
b101100 Q
b101100 J
b101100 7
b101100 @
b101100 R
b1011 q
b0 f
b0 e
b0 b
b1011 `
b10 U
b1000000 6
b1000000 N
b1000000 P
b1000000000000000000000001011 5
b1000000000000000000000001011 S
b111100 E
b1101100 2
b1101100 K
b1101100 M
b1000000 1
b1000000 H
b1000000 I
b1000000 L
b111100 >
b111100 F
b111100 T
1"
10
#320
0"
00
#330
b100000 z
b100000 4
b100000 )"
b110000 :
b110000 B
b110000 C
0w
0/
b1 v
b1 3
b1 x
b1 ("
b1011 h
b100000 9
b100000 g
b100000 *"
b110000 7
b110000 @
b110000 R
b10000 j
b10000 =
b10000 p
b10000 y
b1 i
b1 <
b1 t
b1011 ;
b1011 d
1^
1.
1W
1&
1[
1+
0Y
0)
1Z
1*
b100001011000000000000000000 Q
b0 J
b0 q
b1011 f
b1000 e
b1011 b
b0 `
b100011 U
b110000 6
b110000 N
b110000 P
b10001101000010110000000000000000 5
b10001101000010110000000000000000 S
b101100 E
b110000 2
b110000 K
b110000 M
b110000 1
b110000 H
b110000 I
b110000 L
b101100 >
b101100 F
b101100 T
1"
10
#340
b100000 o
b100000 j
b100000 =
b100000 p
b100000 y
0"
00
#350
b1001 h
b110000 v
b110000 3
b110000 x
b110000 ("
b1001 ;
b1001 d
b110000 9
b110000 g
b110000 *"
b110100 :
b110100 B
b110100 C
b100000 8
b100000 r
b100000 u
b10000 i
b10000 <
b10000 t
1]
1-
0W
0&
0[
0+
b10 V
b10 %
b10 _
0Z
0*
b100101011010010000010000000 Q
b10010000010000000 J
b110100 7
b110100 @
b110100 R
b100100000100000 q
b1001 e
b1001 c
b100000 `
b0 U
b110100 6
b110100 N
b110100 P
b1001010110100100000100000 5
b1001010110100100000100000 S
b110000 E
b10010000010110100 2
b10010000010110100 K
b10010000010110100 M
b110100 1
b110100 H
b110100 I
b110100 L
b110000 >
b110000 F
b110000 T
1"
10
#360
b1010000 9
b1010000 g
b1010000 *"
b1010000 v
b1010000 3
b1010000 x
b1010000 ("
b110000 m
b110000 i
b110000 <
b110000 t
0"
00
#370
b11111111111111111111111111111110 9
b11111111111111111111111111111110 g
b11111111111111111111111111111110 *"
b11 8
b11 r
b11 u
b1010 h
b11111111111111111111111111111110 v
b11111111111111111111111111111110 3
b11111111111111111111111111111110 x
b11111111111111111111111111111110 ("
b111000 :
b111000 B
b111000 C
b11 j
b11 =
b11 p
b11 y
b1 i
b1 <
b1 t
b1010 ;
b1010 d
b110 a
b110 $
b110 s
0^
0.
0]
0-
1X
1'
b1 V
b1 %
b1 _
b100001010000000000000001000 Q
b1000 J
b111000 7
b111000 @
b111000 R
b10 q
b1010 f
b1000 e
b0 c
b1010 b
b10 `
b100 U
b111000 6
b111000 N
b111000 P
b10001000010100000000000000010 5
b10001000010100000000000000010 S
b110100 E
b1000000 2
b1000000 K
b1000000 M
b111000 1
b111000 H
b111000 I
b111000 L
b110100 >
b110100 F
b110100 T
1"
10
#380
0"
00
#390
b10 9
b10 g
b10 *"
b1000 h
b10 v
b10 3
b10 x
b10 ("
b1 8
b1 r
b1 u
b111100 :
b111100 B
b111100 C
b1 j
b1 =
b1 p
b1 y
b1000 ;
b1000 d
b10 a
b10 $
b10 s
1^
1.
1W
1&
0X
0'
b0 V
b0 %
b0 _
b100001000000000000000000100 Q
b100 J
b111100 7
b111100 @
b111100 R
b1 q
b1000 f
b1000 b
b1 `
b1000 U
b111100 6
b111100 N
b111100 P
b100001000010000000000000000001 5
b100001000010000000000000000001 S
b111000 E
b1000000 2
b1000000 K
b1000000 M
b111100 1
b111100 H
b111100 I
b111100 L
b111000 >
b111000 F
b111000 T
1"
10
#400
b11 9
b11 g
b11 *"
b11 v
b11 3
b11 x
b11 ("
b10 l
b10 j
b10 =
b10 p
b10 y
b10 i
b10 <
b10 t
0"
00
#410
b0 9
b0 g
b0 *"
1w
1/
b0 v
b0 3
b0 x
b0 ("
b0 h
b101100 :
b101100 B
b101100 C
b0 8
b0 r
b0 u
b0 j
b0 =
b0 p
b0 y
b0 i
b0 <
b0 t
b0 ;
b0 d
0^
0.
0W
0&
1Y
1)
b101100 Q
b101100 J
b101100 7
b101100 @
b101100 R
b1011 q
b0 f
b0 e
b0 b
b1011 `
b10 U
b1000000 6
b1000000 N
b1000000 P
b1000000000000000000000001011 5
b1000000000000000000000001011 S
b111100 E
b1101100 2
b1101100 K
b1101100 M
b1000000 1
b1000000 H
b1000000 I
b1000000 L
b111100 >
b111100 F
b111100 T
1"
10
#420
0"
00
#430
b110000 :
b110000 B
b110000 C
0w
0/
b10 v
b10 3
b10 x
b10 ("
b1011 h
b110000 9
b110000 g
b110000 *"
b110000 z
b110000 4
b110000 )"
b110000 7
b110000 @
b110000 R
b100000 j
b100000 =
b100000 p
b100000 y
b10 i
b10 <
b10 t
b1011 ;
b1011 d
1^
1.
1W
1&
1[
1+
0Y
0)
1Z
1*
b100001011000000000000000000 Q
b0 J
b0 q
b1011 f
b1000 e
b1011 b
b0 `
b100011 U
b110000 6
b110000 N
b110000 P
b10001101000010110000000000000000 5
b10001101000010110000000000000000 S
b101100 E
b110000 2
b110000 K
b110000 M
b110000 1
b110000 H
b110000 I
b110000 L
b101100 >
b101100 F
b101100 T
1"
10
#440
b110000 o
b110000 j
b110000 =
b110000 p
b110000 y
0"
00
#450
b1001 h
b1100000 v
b1100000 3
b1100000 x
b1100000 ("
b1001 ;
b1001 d
b1100000 9
b1100000 g
b1100000 *"
b110100 :
b110100 B
b110100 C
b110000 8
b110000 r
b110000 u
b110000 i
b110000 <
b110000 t
1]
1-
0W
0&
0[
0+
b10 V
b10 %
b10 _
0Z
0*
b100101011010010000010000000 Q
b10010000010000000 J
b110100 7
b110100 @
b110100 R
b100100000100000 q
b1001 e
b1001 c
b100000 `
b0 U
b110100 6
b110100 N
b110100 P
b1001010110100100000100000 5
b1001010110100100000100000 S
b110000 E
b10010000010110100 2
b10010000010110100 K
b10010000010110100 M
b110100 1
b110100 H
b110100 I
b110100 L
b110000 >
b110000 F
b110000 T
1"
10
#460
b10010000 9
b10010000 g
b10010000 *"
b10010000 v
b10010000 3
b10010000 x
b10010000 ("
b1100000 m
b1100000 i
b1100000 <
b1100000 t
0"
00
#470
b11111111111111111111111111111111 9
b11111111111111111111111111111111 g
b11111111111111111111111111111111 *"
b11 8
b11 r
b11 u
b1010 h
b11111111111111111111111111111111 v
b11111111111111111111111111111111 3
b11111111111111111111111111111111 x
b11111111111111111111111111111111 ("
b111000 :
b111000 B
b111000 C
b11 j
b11 =
b11 p
b11 y
b10 i
b10 <
b10 t
b1010 ;
b1010 d
b110 a
b110 $
b110 s
0^
0.
0]
0-
1X
1'
b1 V
b1 %
b1 _
b100001010000000000000001000 Q
b1000 J
b111000 7
b111000 @
b111000 R
b10 q
b1010 f
b1000 e
b0 c
b1010 b
b10 `
b100 U
b111000 6
b111000 N
b111000 P
b10001000010100000000000000010 5
b10001000010100000000000000010 S
b110100 E
b1000000 2
b1000000 K
b1000000 M
b111000 1
b111000 H
b111000 I
b111000 L
b110100 >
b110100 F
b110100 T
1"
10
#480
0"
00
#490
b11 9
b11 g
b11 *"
b1000 h
b11 v
b11 3
b11 x
b11 ("
b1 8
b1 r
b1 u
b111100 :
b111100 B
b111100 C
b10 j
b10 =
b10 p
b10 y
b1000 ;
b1000 d
b10 a
b10 $
b10 s
1^
1.
1W
1&
0X
0'
b0 V
b0 %
b0 _
b100001000000000000000000100 Q
b100 J
b111100 7
b111100 @
b111100 R
b1 q
b1000 f
b1000 b
b1 `
b1000 U
b111100 6
b111100 N
b111100 P
b100001000010000000000000000001 5
b100001000010000000000000000001 S
b111000 E
b1000000 2
b1000000 K
b1000000 M
b111100 1
b111100 H
b111100 I
b111100 L
b111000 >
b111000 F
b111000 T
1"
10
#500
b100 9
b100 g
b100 *"
b100 v
b100 3
b100 x
b100 ("
b11 l
b11 j
b11 =
b11 p
b11 y
b11 i
b11 <
b11 t
0"
00
#510
b0 9
b0 g
b0 *"
1w
1/
b0 v
b0 3
b0 x
b0 ("
b0 h
b101100 :
b101100 B
b101100 C
b0 8
b0 r
b0 u
b0 j
b0 =
b0 p
b0 y
b0 i
b0 <
b0 t
b0 ;
b0 d
0^
0.
0W
0&
1Y
1)
b101100 Q
b101100 J
b101100 7
b101100 @
b101100 R
b1011 q
b0 f
b0 e
b0 b
b1011 `
b10 U
b1000000 6
b1000000 N
b1000000 P
b1000000000000000000000001011 5
b1000000000000000000000001011 S
b111100 E
b1101100 2
b1101100 K
b1101100 M
b1000000 1
b1000000 H
b1000000 I
b1000000 L
b111100 >
b111100 F
b111100 T
1"
10
#520
0"
00
#530
b110000 :
b110000 B
b110000 C
0w
0/
b11 v
b11 3
b11 x
b11 ("
b1011 h
b1000000 9
b1000000 g
b1000000 *"
b1000000 z
b1000000 4
b1000000 )"
b110000 7
b110000 @
b110000 R
b110000 j
b110000 =
b110000 p
b110000 y
b11 i
b11 <
b11 t
b1011 ;
b1011 d
1^
1.
1W
1&
1[
1+
0Y
0)
1Z
1*
b100001011000000000000000000 Q
b0 J
b0 q
b1011 f
b1000 e
b1011 b
b0 `
b100011 U
b110000 6
b110000 N
b110000 P
b10001101000010110000000000000000 5
b10001101000010110000000000000000 S
b101100 E
b110000 2
b110000 K
b110000 M
b110000 1
b110000 H
b110000 I
b110000 L
b101100 >
b101100 F
b101100 T
1"
10
#540
b1000000 o
b1000000 j
b1000000 =
b1000000 p
b1000000 y
0"
00
#550
b1001 h
b10100000 v
b10100000 3
b10100000 x
b10100000 ("
b1001 ;
b1001 d
b10100000 9
b10100000 g
b10100000 *"
b110100 :
b110100 B
b110100 C
b1000000 8
b1000000 r
b1000000 u
b1100000 i
b1100000 <
b1100000 t
1]
1-
0W
0&
0[
0+
b10 V
b10 %
b10 _
0Z
0*
b100101011010010000010000000 Q
b10010000010000000 J
b110100 7
b110100 @
b110100 R
b100100000100000 q
b1001 e
b1001 c
b100000 `
b0 U
b110100 6
b110100 N
b110100 P
b1001010110100100000100000 5
b1001010110100100000100000 S
b110000 E
b10010000010110100 2
b10010000010110100 K
b10010000010110100 M
b110100 1
b110100 H
b110100 I
b110100 L
b110000 >
b110000 F
b110000 T
1"
10
#560
b11100000 9
b11100000 g
b11100000 *"
b11100000 v
b11100000 3
b11100000 x
b11100000 ("
b10100000 m
b10100000 i
b10100000 <
b10100000 t
0"
00
#570
1O
1w
1/
b0 9
b0 g
b0 *"
b11 8
b11 r
b11 u
b1010 h
b0 v
b0 3
b0 x
b0 ("
b1000000 :
b1000000 B
b1000000 C
b11 j
b11 =
b11 p
b11 y
b11 i
b11 <
b11 t
b1010 ;
b1010 d
b110 a
b110 $
b110 s
0^
0.
0]
0-
1X
1'
b1 V
b1 %
b1 _
b100001010000000000000001000 Q
b1000 J
b1000000 7
b1000000 @
b1000000 R
b10 q
b1010 f
b1000 e
b0 c
b1010 b
b10 `
b100 U
b1000000 6
b1000000 N
b1000000 P
b10001000010100000000000000010 5
b10001000010100000000000000010 S
b110100 E
b1000000 2
b1000000 K
b1000000 M
b111000 1
b111000 H
b111000 I
b111000 L
b110100 >
b110100 F
b110100 T
1"
10
#580
0"
00
#590
b1100100 9
b1100100 g
b1100100 *"
b1000 h
0w
0/
b1100100 v
b1100100 3
b1100100 x
b1100100 ("
b1100100 8
b1100100 r
b1100100 u
0O
b1000100 :
b1000100 B
b1000100 C
b0 i
b0 <
b0 t
b1000 ;
b1000 d
b10 a
b10 $
b10 s
1^
1.
1W
1&
0X
0'
b0 V
b0 %
b0 _
b1000000000000110010000 Q
b110010000 J
b1000100 7
b1000100 @
b1000100 R
b1100100 q
b1000 f
b0 e
b1000 b
b100100 `
b1000 U
b1000100 6
b1000100 N
b1000100 P
b100000000010000000000001100100 5
b100000000010000000000001100100 S
b1000000 E
b111010100 2
b111010100 K
b111010100 M
b1000100 1
b1000100 H
b1000100 I
b1000100 L
b1000000 >
b1000000 F
b1000000 T
1"
10
#600
b1100100 l
b1100100 j
b1100100 =
b1100100 p
b1100100 y
0"
00
